{
  "en": {
    "addReflection": "Add your reflection",
    "messagePlaceholder": "Type your message...",
    "doneButton": "Done",
    "cancelButton": "Cancel"
  },
  "sv": {
    "addReflection": "Lägg till en reflektion",
    "messagePlaceholder": "Skriv ditt meddelande...",
    "doneButton": "Klar",
    "cancelButton": "Avbryt"
  },
  "pt": {
    "addReflection": "Adiciona a tua reflexão",
    "messagePlaceholder": "Escreve a tua mensagem...",
    "doneButton": "Confirmar",
    "cancelButton": "Cancelar"
  }
}