{
  "en": {
    "title": "What is a group?",
    "text__markdown": "#### A group is 3-6 friends or fellow users who do weekly video calls to share experiences of lessons or exercises.\n\n*“It’s incredible how I can feel strong closeness to my team persons and relate to what they are sharing.“*"
  },
  "sv": {
    "title": "Vad är en grupp?",
    "text__markdown": "#### En grupp är 3-6 personer som har videomöten en gång i veckan för att dela sina upplevelser av lektioner eller övningar.\n\n *“Fantastiskt att jag kan känna så stark samhörighet med de andra och verkligen relatera till det dom säger.“*"
  },
  "pt": {
    "title": "O que é um grupo?",
    "text__markdown": "#### Um grupo é formado por 3 a 6 amigas, amigos ou outros utilizadores que se reúnem semanalmente para partilhar experiências das aulas ou dos exercícios. \n“É incrível como consigo sentir uma forte proximidade com as pessoas do meu grupo e me consigo identificar com o que elas estão a partilhar.“"
  }
}