{
  "en": {
    "screenTitle": "Discover",
    "activeCourses": "My courses",
    "promoted": "Right now",
    "featured": {
      "courses": "Suggestions",
      "exercises": "Bite-sized exercises",
      "meditations": "Let's meditate",
      "tests": "Test yourself",
      "campaigns": "Right now"
    },
    "buttons": {
      "meditations": "Meditations",
      "courses": "Courses",
      "exercises": "Exercises",
      "tests": "Tests"
    },
    "author": {
      "with": "with {{authorName}}"
    }
  },
  "sv": {
    "screenTitle": "Upptäck",
    "activeCourses": "Mina kurser",
    "promoted": "Just nu",
    "featured": {
      "courses": "Utvalt",
      "exercises": "Du kanske gillar",
      "meditations": "Ta en paus",
      "tests": "Testa dig själv",
      "campaigns": "Aktuellt"
    },
    "buttons": {
      "meditations": "Meditationer",
      "courses": "Kurser",
      "exercises": "Övningar",
      "tests": "Tester"
    },
    "author": {
      "with": "med {{authorName}}"
    }
  },
  "pt": {
    "screenTitle": "Explora",
    "activeCourses": "Os meus cursos",
    "promoted": "Agora",
    "featured": {
      "campaigns": "Neste momento",
      "courses": "Sugestões",
      "exercises": "Exercícios rápidos",
      "tests": "Conhece-te a ti mesma/o",
      "meditations": "Vamos meditar"
    },
    "buttons": {
      "meditations": "Meditações",
      "courses": "Cursos",
      "exercises": "Exercícios",
      "tests": "Testes"
    },
    "author": {
      "with": "com {{authorName}}"
    }
  }
}