{
  "en": {
    "messages": {
      "onRamp1": {
        "body__markdown": "Hey Everyone! Tomorrow you have a scheduled <!course:{{courseId}}|{{courseName}}> video sharing. A reminder:\n\n1. Complete <!lesson:{{lessonId}}|{{lessonName}}> to be ready\n2. If you can't make the sharing, be sure to let the others know\n3. Be available and ready with your written exercises in a quiet place \n\nRemember, group sharing is important for your personal growth. And it means just as much to the others.",
        "notification": "Hey Everyone! Tomorrow you have a scheduled <!course:{{courseId}}|{{courseName}}> video sharing. A reminder:\n\n1. Complete <!lesson:{{lessonId}}|{{lessonName}}> to be ready\n2. If you can't make the sharing, be sure to let the others know\n3. Be available and ready with your written exercises in a quiet place \n\nRemember, group sharing is important for your personal growth. And it means just as much to the others."
      },
      "onRamp2": {
        "body__markdown": "3 hours left until your <!course:{{courseId}}|{{courseName}}> sharing! Make sure you've completed <!lesson:{{lessonId}}|{{lessonName}}>, and be ready to take the video call in a quiet place, so you can truly be present.",
        "notification": "3 hours left until your <!course:{{courseId}}|{{courseName}}> sharing! Make sure you've completed <!lesson:{{lessonId}}|{{lessonName}}>, and be ready to take the video call in a quiet place, so you can truly be present."
      },
      "groupLanguageUpdated": {
        "body__markdown": "<!user:{{userId}}|{{userName}}> just updated this group's language. [Change](29k:group:settings)",
        "notification": "<!user:{{userId}}|{{userName}}> just updated this group's language"
      },
      "joiningSharing": {
        "body__markdown": "<!user:{{userId}}|{{userName}}> just started the group's video sharing. [Join](29k:group:video)",
        "notification": "<!user:{{userId}}|{{userName}}> just started the group's video sharing"
      },
      "groupSetToPrivate": {
        "body__markdown": "<!user:{{userId}}|{{userName}}> just changed the group to private. [Change](29k:group:settings)",
        "notification": "<!user:{{userId}}|{{userName}}> just changed the group to private."
      },
      "groupSetToPublic": {
        "body__markdown": "<!user:{{userId}}|{{userName}}> just changed the group to public. [Change](29k:group:settings)",
        "notification": "<!user:{{userId}}|{{userName}}> just changed the group to public."
      },
      "groupCreated": {
        "body__markdown": "Thank you for creating a space where you and others can grow. The next step is to wait for community members to join your group. We recommend at least {{minSize}} people to start sharing.",
        "notification": "Thank you for creating a space where you and others can grow. The next step is to wait for community members to join your group. We recommend at least {{minSize}} people to start sharing."
      },
      "groupTimeUpdated": {
        "body__markdown": "<!user:{{userId}}|{{userName}}> just updated this group's sharing time. [Change](29k:group:settings)",
        "notification": "<!user:{{userId}}|{{userName}}> just updated this group's sharing time"
      },
      "groupNameUpdated": {
        "body__markdown": "<!user:{{userId}}|{{userName}}> named the group {{name}}. [Change](29k:group:settings)",
        "notification": "<!user:{{userId}}|{{userName}}> named the group {{name}}"
      },
      "groupIsPublic": {
        "body__markdown": "Your group is public. If you don't want new members to join, consider making it private. [Change](29k:group:settings)",
        "notification": "Your group is public. If you don't want new members to join, consider making it private."
      },
      "subsequentJoins": {
        "body__markdown": "Please welcome <!user:{{userId}}|{{userName}}> who just joined your group!\n\nTap a user's profile picture to view their introduction.",
        "notification": "<!user:{{userId}}|{{userName}}> just joined your sharing group"
      },
      "lessonCompletion": {
        "body__markdown": "Great. <!user:{{userId}}|{{userName}}> just completed <!lesson:{{lessonId}}|{{lessonName}}> to be ready for the upcoming sharing.",
        "notification": "<!user:{{userId}}|{{userName}}> just completed <!lesson:{{lessonId}}|{{lessonName}}>"
      },
      "courseCompletion": {
        "body__markdown": "You made it to the end of <!course:{{courseId}}|{{courseName}}>! Keep letting your group know how these tools help you in everyday life.\n\nWe hope you can lean on each other in tough times or when you’ve overcome an inner obstacle.",
        "notification": "You made it to the end of <!course:{{courseId}}|{{courseName}}>! Keep letting your group know how these tools help you in everyday life.\n\nWe hope you can lean on each other in tough times or when you’ve overcome an inner obstacle."
      },
      "leftGroup": {
        "body__markdown": "<!user:{{userId}}|{{userName}}> left your sharing group.",
        "notification": "<!user:{{userId}}|{{userName}}> left your sharing group"
      },
      "sharingAboutToBegin": {
        "body__markdown": "Your group sharing is ready to begin, please open the app and start the group video call. Your group is waiting!",
        "notification": "Your group sharing is ready to begin, please open the app and start the group video call. Your group is waiting!"
      }
    },
    "pushMessages": {
      "rsvpReminder": {
        "title": "Upcoming video sharing",
        "body": "Will you make it to the video sharing? Let your group know."
      }
    },
    "qa": {
      "choices": {
        "choice_yes": "Yes",
        "choice_no": "No"
      },
      "courseCompletion": {
        "question": {
          "body__markdown": "Hope your <!lesson:{{lessonId}}|{{lessonName}}> sharing was good. Ready to complete the course?",
          "notification": "Hope your <!lesson:{{lessonId}}|{{lessonName}}> sharing was good. Ready to complete the course?"
        },
        "answer": {
          "body__markdown_yes": "<!user:{{userId}}|{{userName}}> said “Yes” when asked if <!lesson:{{lessonId}}|{{lessonName}}> has been completed.",
          "body__markdown_no": "<!user:{{userId}}|{{userName}}> replied “No” when asked if <!course:{{courseId}}|{{courseName}}> is complete. The sharing for <!lesson:{{lessonId}}|{{lessonName}}> has been postponed to next week.",
          "notification_yes": "Done with <!course:{{courseId}}|{{courseName}}>. Congratulations!",
          "notification_no": "<!lesson:{{lessonId}}|{{lessonName}}> was postponed to next week."
        }
      },
      "courseProgress": {
        "question": {
          "body__markdown": "Hope your sharing about <!lesson:{{lessonId}}|{{lessonName}}> was good. Are you ready to move on to the next lesson?",
          "notification": "Are you ready to move on to the next lesson?"
        },
        "answer": {
          "body__markdown_yes": "<!user:{{userId}}|{{userName}}> replied “Yes” to move the group on to the next lesson.",
          "body__markdown_no": "<!user:{{userId}}|{{userName}}> said “No” to move the group forward to the next lesson. The sharing for <!lesson:{{lessonId}}|{{lessonName}}> was postponed to next week.",
          "notification_yes": "<!user:{{userId}}|{{userName}}> replied “Yes” to move the group to the next lesson.",
          "notification_no": "Sharing for <!lesson:{{lessonId}}|{{lessonName}}> has been postponed to next week."
        },
        "answeredNo": {
          "body__markdown": "<!user:{{userId}}|{{userName}}> kept the group in <!lesson:{{lessonId}}|{{lessonName}}>",
          "notification": "<!user:{{userId}}|{{userName}}> kept the group in <!lesson:{{lessonId}}|{{lessonName}}>"
        }
      }
    },
    "status": {
      "changeSharingLesson": {
        "body__markdown": "<!user:{{userId}}|{{userName}}> changed the group to <!lesson:{{lessonId}}|{{lessonName}}>. [Change](29k:group:settings)",
        "notification": "<!user:{{userId}}|{{userName}}> changed the group to <!lesson:{{lessonId}}|{{lessonName}}>"
      }
    }
  },
  "sv": {
    "messages": {
      "onRamp1": {
        "body__markdown": "Hej allihopa! I morgon har ni ett schemalagt gruppsamtal om <!course:{{courseId}}|{{courseName}}>. För att ni ska vara redo:\n\n1. Gör klart <!lesson:{{lessonId}}|{{lessonName}}>\n2. Informera de andra om du inte kommer kunna vara med\n3. Var tillgänglig på en lugn plats med dina skriftliga övningar nära till hands\n\nKom ihåg att dela med sig i en grupp är inte bara viktigt för din personliga utveckling, utan är lika viktigt för andras.",
        "notification": "Hej allihopa! I morgon har ni ett schemalagt gruppsamtal om <!course:{{courseId}}|{{courseName}}>. För att ni ska vara redo:\n\n1. Gör klart <!lesson:{{lessonId}}|{{lessonName}}>\n2. Informera de andra om du inte kommer kunna vara med\n3. Var tillgänglig på en lugn plats med dina skriftliga övningar nära till hands\n\nKom ihåg att dela med sig i en grupp är inte bara viktigt för din personliga utveckling, utan är lika viktigt för andras."
      },
      "onRamp2": {
        "body__markdown": "3 timmar kvar till gruppsamtalet om <!course:{{courseId}}|{{courseName}}>! Se till att du har gjort klart <!lesson:{{lessonId}}|{{lessonName}}> och var tillgänglig för samtalet på en lugn plats så att du verkligen kan vara närvarande.",
        "notification": "3 timmar kvar till gruppsamtalet om <!course:{{courseId}}|{{courseName}}>! Se till att du har gjort klart <!lesson:{{lessonId}}|{{lessonName}}> och var tillgänglig för samtalet på en lugn plats så att du verkligen kan vara närvarande."
      },
      "groupLanguageUpdated": {
        "body__markdown": "<!user:{{userId}}|{{userName}}> uppdaterade just språket för denna grupp. [Ändra](29k:group:settings)",
        "notification": "<!user:{{userId}}|{{userName}}> uppdaterade språket"
      },
      "joiningSharing": {
        "body__markdown": "<!user:{{userId}}|{{userName}}> startade precis gruppsamtalet. [Gå med](29k:group:video)",
        "notification": "<!user:{{userId}}|{{userName}}> startade precis ett gruppsamtal"
      },
      "groupSetToPrivate": {
        "body__markdown": "<!user:{{userId}}|{{userName}}> ändrade gruppen till att vara privat. [Ändra](29k:group:settings)",
        "notification": "<!user:{{userId}}|{{userName}}> ändrade gruppen till att vara privat."
      },
      "groupSetToPublic": {
        "body__markdown": "<!user:{{userId}}|{{userName}}> ändrade gruppen till att vara publik. [Ändra](29k:group:settings)",
        "notification": "<!user:{{userId}}|{{userName}}> ändrade gruppen till att vara publik."
      },
      "groupCreated": {
        "body__markdown": "Tack för att du skapar en plats där du och andra kan utvecklas. Nästa steg är att vänta på att medlemmar i vårt community ska gå med i din grupp. Vi rekommenderar minst {{minSize}} personer för att börja dela.",
        "notification": "Tack för att du skapar en plats där du och andra kan utvecklas. Nästa steg är att vänta på att medlemmar i vårt community ska gå med i din grupp. Vi rekommenderar minst {{minSize}} personer för att börja dela."
      },
      "groupTimeUpdated": {
        "body__markdown": "<!user:{{userId}}|{{userName}}> uppdaterade just tiden för detta gruppsamtal. [Ändra](29k:group:settings)",
        "notification": "<!user:{{userId}}|{{userName}}> uppdaterade gruppsamtalstiden"
      },
      "groupNameUpdated": {
        "body__markdown": "<!user:{{userId}}|{{userName}}> ändrade namn på gruppen till {{name}}. [Ändra](29k:group:settings)",
        "notification": "<!user:{{userId}}|{{userName}}> gav gruppen namnet {{name}}"
      },
      "groupIsPublic": {
        "body__markdown": "Din grupp är publik. Om du inte vill att nya medlemmar går med kan du välja att göra den privat. [Ändra](29k:group:settings)",
        "notification": "Din grupp är publik. Om du inte vill att nya medlemmar går med kan du välja att göra den privat."
      },
      "subsequentJoins": {
        "body__markdown": "Varmt välkommen till <!user:{{userId}}|{{userName}}> som just har gått med i din grupp!\n\nDu kan trycka på en användares profilbild för att se deras introduktionstext.",
        "notification": "<!user:{{userId}}|{{userName}}> gick precis med i din grupp"
      },
      "lessonCompletion": {
        "body__markdown": "Bra! <!user:{{userId}}|{{userName}}> avslutade precis <!lesson:{{lessonId}}|{{lessonName}}> och är redo för det kommande gruppsamtalet.",
        "notification": "<!user:{{userId}}|{{userName}}> blev just klar med <!lesson:{{lessonId}}|{{lessonName}}>"
      },
      "courseCompletion": {
        "body__markdown": "Grattis till slutförd <!course:{{courseId}}|{{courseName}}>! Fortsätt gärna att dela med dig med din grupp om hur verktygen hjälper dig i vardagen.\n\nVi hoppas att ni kan luta er mot varandra i svåra tider, eller när ni har uthärdat en inre svårighet.",
        "notification": "Grattis till slutförd <!course:{{courseId}}|{{courseName}}>! Fortsätt gärna att dela med dig med din grupp om hur verktygen hjälper dig i vardagen.\n\nVi hoppas att ni kan luta er mot varandra i svåra tider, eller när ni har uthärdat en inre svårighet."
      },
      "leftGroup": {
        "body__markdown": "<!user:{{userId}}|{{userName}}> har lämnat din grupp.",
        "notification": "<!user:{{userId}}|{{userName}}> har lämnat din grupp."
      },
      "sharingAboutToBegin": {
        "body__markdown": "Ditt gruppsamtal är redo att börja, öppna appen och starta samtalet. Din grupp väntar!",
        "notification": "Ditt gruppsamtal är redo att börja, öppna appen och starta samtalet. Din grupp väntar!"
      }
    },
    "pushMessages": {
      "rsvpReminder": {
        "title": "Ditt nästa videosamtal",
        "body": "Berätta för din grupp att du kommer vara med i samtalet"
      }
    },
    "qa": {
      "choices": {
        "choice_yes": "Ja",
        "choice_no": "Nej"
      },
      "courseCompletion": {
        "question": {
          "body__markdown": "Hoppas att ert samtal om <!lesson:{{lessonId}}|{{lessonName}}> var bra. Redo att göra klart <!course:{{courseId}}|{{courseName}}>?",
          "notification": "Hoppas att ert samtal om <!lesson:{{lessonId}}|{{lessonName}}> var bra. Redo att göra klart <!course:{{courseId}}|{{courseName}}>?"
        },
        "answer": {
          "body__markdown_yes": "<!user:{{userId}}|{{userName}}> svarade ”Ja” om huruvida <!lesson:{{lessonId}}|{{lessonName}}> är genomförd.",
          "body__markdown_no": "<!user:{{userId}}|{{userName}}> svarade ”Nej” om huruvida <!course:{{courseId}}|{{courseName}}> är klar. Gruppsamtalet för <!lesson:{{lessonId}}|{{lessonName}}> har skjutits upp till nästa vecka.",
          "notification_yes": "Klar med <!course:{{courseId}}|{{courseName}}>. Grattis!",
          "notification_no": "<!lesson:{{lessonId}}|{{lessonName}}> sköts upp till nästa vecka."
        }
      },
      "courseProgress": {
        "question": {
          "body__markdown": "Hoppas att ert samtal om <!lesson:{{lessonId}}|{{lessonName}}> var bra. Är ni redo att gå vidare till nästa lektion?",
          "notification": "Är ni redo att gå vidare till nästa lektion?"
        },
        "answer": {
          "body__markdown_yes": "<!user:{{userId}}|{{userName}}> svarade ”Ja” för att gruppen ska gå vidare till nästa lektion.",
          "body__markdown_no": "<!user:{{userId}}|{{userName}}> svarade ”Nej” för att gruppen ska gå vidare till nästa lektion. Samtalet för <!lesson:{{lessonId}}|{{lessonName}}> har skjutits upp till nästa vecka.",
          "notification_yes": "<!user:{{userId}}|{{userName}}> svarade ”Ja” om att gå vidare till nästa lektion.",
          "notification_no": "Samtalet för <!lesson:{{lessonId}}|{{lessonName}}> har skjutits upp till nästa vecka."
        },
        "answeredNo": {
          "body__markdown": "<!user:{{userId}}|{{userName}}> höll kvar gruppen i <!lesson:{{lessonId}}|{{lessonName}}>",
          "notification": "<!user:{{userId}}|{{userName}}> höll kvar gruppen i <!lesson:{{lessonId}}|{{lessonName}}>"
        }
      }
    },
    "status": {
      "changeSharingLesson": {
        "body__markdown": "<!user:{{userId}}|{{userName}}> bytte lektion till <!lesson:{{lessonId}}|{{lessonName}}>. [Ändra](29k:group:settings)",
        "notification": "<!user:{{userId}}|{{userName}}> bytte lektion till <!lesson:{{lessonId}}|{{lessonName}}>"
      }
    }
  },
  "pt": {
    "messages": {
      "onRamp1": {
        "body__markdown": "Olá a todos! Amanhã temos agendada uma sessão de partilha por vídeo do curso <!course:{{courseId}}|{{courseName}}>. Para relembrar:\n\n1. Completa a lição <!lesson:{{lessonId}}|{{lessonName}}> para te preparares para a sessão\n2. Se não puderes fazer a partilha, avisa por favor os outros membros do grupo\n3. Está disponível e preparada/o num local sossegado, com as notas dos teus exercícios \n\nLembra-te de que as partilhas em grupo são fundamentais para o teu desenvolvimento pessoal. E são igualmente importantes para os outros membros do grupo.",
        "notification": "Olá a todos! Amanhã temos agendada uma sessão de partilha por vídeo do curso <!course:{{courseId}}|{{courseName}}>. Para relembrar:\n\n1. Completa a lição <!lesson:{{lessonId}}|{{lessonName}}> para te preparares para a sessão\n2. Se não puderes fazer a partilha, avisa por favor os outros membros do grupo\n3. Está disponível e preparada/o num local sossegado, com as notas dos teus exercícios \n\nLembra-te de que as partilhas em grupo são fundamentais para o teu desenvolvimento pessoal. E são igualmente importantes para os outros membros do grupo."
      },
      "onRamp2": {
        "body__markdown": "Faltam 3 horas para a tua sessão de partilha do curso <!course:{{courseId}}|{{courseName}}>! Garante que completaste a lição <!lesson:{{lessonId}}|{{lessonName}}> e tens tudo preparado para fazer a videochamada num local sossegado que te permita estar totalmente presente.",
        "notification": "Faltam 3 horas para a tua sessão de partilha do curso <!course:{{courseId}}|{{courseName}}>! Garante que completaste a lição <!lesson:{{lessonId}}|{{lessonName}}> e tens tudo preparado para fazer a videochamada num local sossegado que te permita estar totalmente presente."
      },
      "groupLanguageUpdated": {
        "body__markdown": "<!user:{{userId}}|{{userName}}> acabou de atualizar o idioma deste grupo [Atualizar](29k:group:settings)",
        "notification": "<!user:{{userId}}|{{userName}}> acabou de atualizar o idioma deste grupo"
      },
      "joiningSharing": {
        "body__markdown": "<!user:{{userId}}|{{userName}}> iniciou a sessão de partilha por vídeo. [Junta-te](29k:group:video)!",
        "notification": "<!user:{{userId}}|{{userName}}> acabou de iniciar a sessão de partilha por vídeo"
      },
      "groupSetToPrivate": {
        "body__markdown": "<!user:{{userId}}|{{userName}}> alterou o grupo para privado. \\[Atualizar](29k:group:settings)",
        "notification": "<!user:{{userId}}|{{userName}}> alterou o grupo para privado."
      },
      "groupSetToPublic": {
        "body__markdown": "<!user:{{userId}}|{{userName}}> alterou o grupo para público. \\[Atualizar](29k:group:settings)",
        "notification": "<!user:{{userId}}|{{userName}}> alterou o grupo para público."
      },
      "groupCreated": {
        "body__markdown": "Obrigado por criares um espaço seguro e agradável onde podes crescer em conjunto com os outros. O próximo passo é aguardares que outros membros da comunidade se juntem ao teu grupo. Recomendamos um mínimo de {{minSize}} pessoas para iniciarem as sessões de partilha.",
        "notification": "Obrigado por criares um espaço seguro e agradável onde podes crescer em conjunto com os outros. O próximo passo é aguardares que outros membros da comunidade se juntem ao teu grupo. Recomendamos um mínimo de {{minSize}} pessoas para iniciarem as sessões de partilha."
      },
      "groupTimeUpdated": {
        "body__markdown": "<!user:{{userId}}|{{userName}}> atualizou o horário da sessão de partilha do grupo. [Atualizar](29k:group:settings)",
        "notification": "<!user:{{userId}}|{{userName}}> acabou de atualizar o horário da sessão de partilha"
      },
      "groupNameUpdated": {
        "body__markdown": "<!user:{{userId}}|{{userName}}> chamou ao grupo {{name}}. [Atualizar](29k:group:settings)",
        "notification": "<!user:{{userId}}|{{userName}}> chamou ao grupo {{name}}"
      },
      "groupIsPublic": {
        "body__markdown": "O teu grupo é público. Se não quiseres que novos membros se juntem, podes optar por torná-lo privado. [Atualizar](29k:group:settings)",
        "notification": "O teu grupo é público. Se não quiseres que novos membros se juntem, podes optar por torná-lo privado."
      },
      "subsequentJoins": {
        "body__markdown": "Dá as boas-vindas ao membro <!user:{{userId}}|{{userName}}> que acabou de se juntar ao grupo!\n\nToca na fotografia de perfil do membro do grupo para veres a sua apresentação.",
        "notification": "<!user:{{userId}}|{{userName}}> acabou de se juntar ao teu grupo de partilha"
      },
      "lessonCompletion": {
        "body__markdown": "Excelente. <!user:{{userId}}|{{userName}}> acabaste de completar a lição <!lesson:{{lessonId}}|{{lessonName}}> para estares preparada/o para a próxima sessão de partilha.",
        "notification": "<!user:{{userId}}|{{userName}}> acabou de completar a lição <!lesson:{{lessonId}}|{{lessonName}}>"
      },
      "courseCompletion": {
        "body__markdown": "Completaste o curso <!course:{{courseId}}|{{courseName}}>! Partilha com o teu grupo a forma como estas ferramentas são importantes e te ajudam no dia-a-dia.\n\nEsperamos que possam confiar uns nos outros nos tempos difíceis ou quando tiverem de ultrapassar desafios pessoais complexos.",
        "notification": "Completaste o curso <!course:{{courseId}}|{{courseName}}>! Partilha com o teu grupo a forma como estas ferramentas são importantes e te ajudam no dia-a-dia.\n\nEsperamos que possam confiar uns nos outros nos tempos difíceis ou quando tiverem de ultrapassar desafios pessoais complexos."
      },
      "leftGroup": {
        "body__markdown": "<!user:{{userId}}|{{userName}}> saiu do teu grupo de partilha.",
        "notification": "<!user:{{userId}}|{{userName}}> saiu do teu grupo de partilha"
      },
      "sharingAboutToBegin": {
        "body__markdown": "A sessão de partilha de grupo está pronta para começar. Por favor, abre a app e inicia a videochamada. O teu grupo está a aguardar!",
        "notification": "A sessão de partilha de grupo está pronta para começar. Por favor, abre a app e inicia a videochamada. O teu grupo está a aguardar!"
      }
    },
    "pushMessages": {
      "rsvpReminder": {
        "title": "Próxima sessão de partilha por vídeo",
        "body": "Vais estar presente na sessão de partilha por vídeo? Avisa os membros do grupo se não puderes estar."
      }
    },
    "qa": {
      "choices": {
        "choice_yes": "Sim",
        "choice_no": "Não"
      },
      "courseCompletion": {
        "question": {
          "body__markdown": "Esperamos que a sessão de partilha da lição <!lesson:{{lessonId}}|{{lessonName}}> tenha sido boa. Agora completa o curso!",
          "notification": "Esperamos que a sessão de partilha da lição <!lesson:{{lessonId}}|{{lessonName}}> tenha sido boa. Agora completa o curso!"
        },
        "answer": {
          "body__markdown_yes": "<!user:{{userId}}|{{userName}}> respondeu “Sim” relativamente à conclusão da lição <!lesson:{{lessonId}}|{{lessonName}}>.",
          "body__markdown_no": "<!user:{{userId}}|{{userName}}> respondeu “Não” relativamente à conclusão do curso <!course:{{courseId}}|{{courseName}}>. A partilha da lição <!lesson:{{lessonId}}|{{lessonName}}> foi adiada para a próxima semana.",
          "notification_yes": "Terminaste o curso <!course:{{courseId}}|{{courseName}}>. Parabéns!",
          "notification_no": "<!lesson:{{lessonId}}|{{lessonName}}> foi adiada para a próxima semana."
        }
      },
      "courseProgress": {
        "question": {
          "body__markdown": "Esperamos que a sessão de partilha da lição <!lesson:{{lessonId}}|{{lessonName}}> tenha sido boa. Vamos iniciar a próxima lição?",
          "notification": "Vamos iniciar a próxima lição?"
        },
        "answer": {
          "body__markdown_yes": "<!user:{{userId}}|{{userName}}> respondeu “Sim” relativamente a adiar a sessão do grupo para a próxima lição.",
          "body__markdown_no": "<!user:{{userId}}|{{userName}}> respondeu “Não” relativamente a adiar a sessão do grupo para a próxima lição. A sessão de partilha da lição <!lesson:{{lessonId}}|{{lessonName}}> foi adiada para a próxima semana.",
          "notification_yes": "<!user:{{userId}}|{{userName}}> respondeu “Sim” relativamente a adiar a sessão do grupo para a próxima lição.",
          "notification_no": "A sessão de partilha da lição <!lesson:{{lessonId}}|{{lessonName}}> foi adiada para a próxima semana."
        },
        "answeredNo": {
          "body__markdown": "<!user:{{userId}}|{{userName}}> manteve a sessão do grupo na lição <!lesson:{{lessonId}}|{{lessonName}}>",
          "notification": "<!user:{{userId}}|{{userName}}> manteve a sessão do grupo na lição <!lesson:{{lessonId}}|{{lessonName}}>"
        }
      }
    },
    "status": {
      "changeSharingLesson": {
        "body__markdown": "<!user:{{userId}}|{{userName}}> alterou a sessão do grupo para a lição <!lesson:{{lessonId}}|{{lessonName}}>. [Alterar](29k:group:settings)",
        "notification": "<!user:{{userId}}|{{userName}}> alterou a sessão do grupo para a lição <!lesson:{{lessonId}}|{{lessonName}}>"
      }
    }
  }
}