{
  "en": {
    "segments": [
      "ALL"
    ],
    "name": "What's alive in you today?",
    "thumbnail": "https://res.cloudinary.com/twentyninek/image/upload/v1636624261/Illustrations_Exercises/Alive_Check-in_w1drtq.png",
    "featured": false,
    "sections": [
      {
        "type": "sharingExercise",
        "previewSharings": false,
        "enableEarlySkip": false,
        "id": "23c346ab-081e-4d3e-a1ed-6c0a4a63baa0",
        "question": "What's alive in you today?",
        "exampleText": "I feel grateful for the people around me",
        "buttonText": "I'm done"
      }
    ],
    "duration": {
      "type": "minute",
      "count": 1
    },
    "type": "exercise",
    "id": "9d2c5576-f7a3-4cc6-95b7-4d73ac6345e6",
    "difficulty": [
      "Beginner"
    ],
    "description": "",
    "wip": false
  },
  "sv": {
    "segments": [
      "ALL"
    ],
    "name": "Vad är levande i dig idag?",
    "thumbnail": "https://res.cloudinary.com/twentyninek/image/upload/v1636624261/Illustrations_Exercises/Alive_Check-in_w1drtq.png",
    "featured": false,
    "sections": [
      {
        "type": "sharingExercise",
        "previewSharings": false,
        "enableEarlySkip": false,
        "id": "23c346ab-081e-4d3e-a1ed-6c0a4a63baa0",
        "question": "Vad är levande i dig idag?",
        "exampleText": "Jag är tacksam för människorna runt omkring mig.",
        "buttonText": "Jag är klar"
      }
    ],
    "duration": {
      "type": "minute",
      "count": 1
    },
    "type": "exercise",
    "id": "9d2c5576-f7a3-4cc6-95b7-4d73ac6345e6",
    "difficulty": [
      "Beginner"
    ],
    "description": "",
    "wip": false
  },
  "pt": {
    "segments": [
      "ALL"
    ],
    "name": "O que estás a sentir hoje?",
    "thumbnail": "https://res.cloudinary.com/twentyninek/image/upload/q_auto,t_global/v1634136606/Illustrations_Exercises/Thumbnail_Check-in_nx1szc.jpg",
    "featured": false,
    "sections": [
      {
        "type": "sharingExercise",
        "previewSharings": false,
        "enableEarlySkip": false,
        "id": "23c346ab-081e-4d3e-a1ed-6c0a4a63baa0",
        "question": "O que estás a sentir hoje?",
        "exampleText": "Sinto-me agradecida/o pelas pessoas que me rodeiam",
        "buttonText": "Terminei"
      }
    ],
    "duration": {
      "type": "minute",
      "count": 1
    },
    "type": "exercise",
    "id": "9d2c5576-f7a3-4cc6-95b7-4d73ac6345e6",
    "difficulty": [
      "Beginner"
    ],
    "description": "",
    "wip": false
  }
}