{
  "en": {
    "id": "514db0c6-204d-4b9a-94d7-4b208bcd1728",
    "alias": "Coping with change 3: Act for change 3",
    "sections": [
      {
        "shortDescription": "",
        "longDescription": "1. What was your **experience** of using structured problem-solving?\n2. How was this **different** to what you would do **normally**?",
        "buttons": [
          {
            "component": "Button",
            "variant": "default",
            "sectionId": "7c6088a6-822c-4c13-a8e3-92a5ef3e6fe2",
            "content": "I'm done"
          }
        ],
        "topImageUri": "https://res.cloudinary.com/twentyninek/image/upload/q_auto,t_global/v1617023623/Badges/exercise_badge_ltbfuq.png",
        "question": "",
        "time": "",
        "alias": "Evaluation",
        "title": "",
        "type": "writing",
        "id": "a2c81839-8f53-4cd4-83d2-3859555012b9"
      },
      {
        "type": "editorialWithImage",
        "id": "7c6088a6-822c-4c13-a8e3-92a5ef3e6fe2",
        "alias": "Completion Screen",
        "content": "In this short course you've become **equipped** with **tools** for coping with change.\n\nAs practice over time is crucial, we highly recommend that you **continue** **practicing** your tools over and over again. So, the next step on your path is to reflect on what you've learned and how that can help you going forward.",
        "buttons": [
          {
            "component": "Button",
            "variant": "default",
            "sectionId": "301cc97c-6118-44fe-9c62-088d83ec7a9d",
            "content": "Next "
          }
        ],
        "title": "Keep practicing"
      },
      {
        "type": "writing",
        "topImageUri": "https://res.cloudinary.com/twentyninek/image/upload/q_auto,t_global/v1617023623/Badges/exercise_badge_ltbfuq.png",
        "id": "301cc97c-6118-44fe-9c62-088d83ec7a9d",
        "title": "Writing exercise",
        "alias": "writing exercise number 2",
        "shortDescription": "",
        "longDescription": "Write down your answers.\n\n1. What **tools** help you cope with change?\n2. What, if anything, has **changed** for you since you've started this course?\n3. Why is it **important** to you to keep **developing** your **toolkit** for managing change?\n4. What are the most **important** **lessons** you want to carry with you?",
        "buttons": [
          {
            "component": "Button",
            "variant": "default",
            "content": "I'm done",
            "sectionId": "97270851-ad3c-47f4-980f-b7806b287a41"
          }
        ]
      },
      {
        "type": "sharingExercise",
        "enableEarlySkip": true,
        "id": "97270851-ad3c-47f4-980f-b7806b287a41",
        "exampleText": "That there are tools that can help me face difficult emotions. That dwelling isn't the same thing as problem solving. That I have the power within me to live a life that is meaningful to me.",
        "alias": "Sharing question",
        "question": "What have you learned about yourself during this course?",
        "nextSection": "f7702374-b24c-413e-a42e-1af13c9d1b3f"
      },
      {
        "type": "editorialWithImage",
        "id": "f7702374-b24c-413e-a42e-1af13c9d1b3f",
        "content": "Well done for completing **Act for change**!\n\nTo continue your practice, we recommend incorporating the tools you've found helpful into your life\n\nYou may also like to check out our other courses, for examples on values and self-compassion.\n\nFor the **research** behind this course, you’ll find references on our [website](https://29k.org/).\n\nLove,\n\nThe 29k-team",
        "buttons": [
          {
            "component": "Button",
            "variant": "default",
            "content": "What's next",
            "sectionId": "0aa656f1-f0d5-462c-8399-c1c1cdf4189a"
          }
        ],
        "alias": "well done",
        "title": ""
      },
      {
        "type": "editorialWithImage",
        "id": "0aa656f1-f0d5-462c-8399-c1c1cdf4189a",
        "alias": "Sharing question",
        "title": "Sharing",
        "content": "You are now ready for the next step — to share with your group.\n\nRemember the questions:\n\n1. How do you **normally** **process** difficult emotions? Do you open up to them or try to avoid, control or suppress them?\n2. Why is it important to you to **keep** **working** on coping with anxiety and worry?\n3. What are the most **important** **lessons** you want to carry with you?",
        "buttons": [
          {
            "component": "LessonCompleteButton",
            "content": "Finish"
          }
        ]
      }
    ],
    "root": "a2c81839-8f53-4cd4-83d2-3859555012b9"
  },
  "sv": {
    "id": "514db0c6-204d-4b9a-94d7-4b208bcd1728",
    "alias": "Coping with change 3: Act for change 3",
    "sections": [
      {
        "shortDescription": "",
        "longDescription": "När du har hunnit testa, **utvärdera**:\n\n1. Är du **nöjd** med din lösning? Om ja, vilket område i ditt liv har **förbättrats**?\n2. Om inte, kan du testa igen eller prova en **annan** **lösning**?\n3. Vad var din **upplevelse** av att använda strukturerad problemlösning istället för att grubbla över och oroa dig för ett problem?\n\n*Spara gärna frågorna eller kom tillbaka till den här lektionen när det passar.*",
        "buttons": [
          {
            "component": "Button",
            "variant": "default",
            "content": "Jag är klar",
            "sectionId": "555e3800-122c-405c-be6b-aeb5fe9d4b21"
          }
        ],
        "topImageUri": "https://res.cloudinary.com/twentyninek/image/upload/q_auto,t_global/v1617023623/Badges/exercise_badge_ltbfuq.png",
        "question": "",
        "time": "",
        "alias": "Utvärdering",
        "title": "",
        "type": "writing",
        "id": "bd6f8113-f895-477c-b955-eead8071615b"
      },
      {
        "type": "editorialWithImage",
        "id": "555e3800-122c-405c-be6b-aeb5fe9d4b21",
        "title": "Sammanfattning",
        "content": "Bra gjort! Du är nu klar med **Agera för förändring.**\n\nNär vi befinner oss i en kris är det viktigt att lägga vår kraft och energi på sådant vi **faktiskt kan kontrollera**.\n\nÄltande och oro kan verka vara ett slags problemlösning, men i själva verket gör vi inga riktiga framsteg med att lösa saker så länge vi **sitter** **fast** i **ångestspiralen**.\n\nIdag har du lärt dig strukturerad problemlösning som du kan använda för att **bryta** ångestspiralen och istället agera på ett mer meningsfullt sätt.",
        "alias": "Bra gjort!",
        "buttons": [
          {
            "component": "Button",
            "variant": "default",
            "sectionId": "a2600cfe-422a-4f33-bd7f-5001f90fb98c",
            "content": "Nästa steg"
          }
        ]
      },
      {
        "type": "editorialWithImage",
        "id": "a2600cfe-422a-4f33-bd7f-5001f90fb98c",
        "content": "Du är nu redo för nästa viktiga steg – att dela med din grupp.\n\nKom ihåg frågorna:\n\n1. Är du **nöjd** med din lösning? Om ja, vilket område i ditt liv har **förbättrats**?\n2. Om inte, kan du testa igen eller prova en **annan** **lösning**?\n3. Vad var din **upplevelse** av att använda strukturerad problemlösning istället för att grubbla över och oroa dig för ett problem?",
        "buttons": [
          {
            "component": "LessonCompleteButton",
            "content": "Avsluta"
          }
        ],
        "alias": "Delning",
        "title": "Delning"
      }
    ],
    "root": "bd6f8113-f895-477c-b955-eead8071615b"
  },
  "pt": {
    "id": "514db0c6-204d-4b9a-94d7-4b208bcd1728",
    "alias": "Coping with change 3: Act for change 3",
    "sections": [
      {
        "shortDescription": "",
        "longDescription": "Depois de implementares a tua solução, **avalia**:\n\n1. Estás **satisfeito** com a solução? Se sim, qual a área da tua vida que **melhorou**?\n2. Se não, podes tentar outra vez ou experimentar uma **outra solução**?\n3. Qual foi a tua **experiência** ao utilizar uma resolução estruturada de problemas em vez de te preocupares apenas com o problema?\n\n*Está à vontade para voltares a esta lição ou guarda estas questões da forma que achares mais adequada.*",
        "buttons": [
          {
            "component": "Button",
            "variant": "default",
            "content": "Continuar",
            "sectionId": "f012616b-2ce7-46e6-8007-0320de12962b"
          }
        ],
        "topImageUri": "https://res.cloudinary.com/twentyninek/image/upload/q_auto,t_global/v1617023623/Badges/exercise_badge_ltbfuq.png",
        "question": "Agora é preciso avaliar como correram as coisas. Estás satisfeita/o com a solução? Em caso afirmativo, o que melhorou na tua vida? Em caso negativo, podes tentar novamente ou então experimentar outra solução?",
        "time": "",
        "alias": "Avaliação",
        "title": "",
        "type": "writing",
        "id": "d14f5426-cdbd-4c75-9518-55cfe19c5bff"
      },
      {
        "type": "editorialWithImage",
        "id": "f012616b-2ce7-46e6-8007-0320de12962b",
        "content": "Parabéns por completares **Agir para mudar**.\n\nQuando estamos numa crise, é importante gastar a nossa **energia** naquilo que **podemos controlar**.\n\nInteriorizarmos e preocuparmo-nos pode parecer uma solução para os problemas, mas na realidade não evoluímos na sua resolução enquanto **permanecermos presos** no ciclo da **ansiedade.**\n\nHoje aprendeste uma estratégia de resolução de problemas estruturada que podes usar para  **quebrar** o ciclo e agires de uma forma que tenha mais significado para ti.",
        "alias": "Conclusão",
        "buttons": [
          {
            "component": "Button",
            "variant": "default",
            "content": "Continuar",
            "sectionId": "77d862a4-3240-4748-b53b-97484bd03031"
          }
        ],
        "title": "Sumário"
      },
      {
        "type": "editorialWithImage",
        "id": "77d862a4-3240-4748-b53b-97484bd03031",
        "alias": "Partilha",
        "title": "Partilha",
        "content": "Estás pronto para o próximo passo importante - partilhar com o teu grupo.\n\nLembra-te das questões:\n\n1. Estás **satisfeito** com a solução? Se sim, qual a área da tua vida que **melhorou**?\n2. Se não, podes tentar outra vez ou experimentar uma **outra solução**?\n3. Qual foi a tua **experiência** ao utilizar uma resolução estruturada de problemas em vez de interiorizares e de te preocupares com o problema?",
        "buttons": [
          {
            "component": "LessonCompleteButton",
            "content": "Terminar"
          }
        ]
      }
    ],
    "root": "d14f5426-cdbd-4c75-9518-55cfe19c5bff"
  }
}