{
  "en": {
    "id": "7feb7a68-b1be-407d-93f7-cc098787c432",

    "root": "section1",
    "sections": [
      {
        "id": "section1",
        "type": "editorialWithImage",
        "alias": "My Safe Place",
        "topImageUri": "https://res.cloudinary.com/twentyninek/image/upload/f_auto,q_auto,t_global/v1620308175/Illustrations_Meditations/Heading_my_safe_place_qfwsic.png",
        "title": "My Safe Place",
        "content": "*3 minutes*\n\nBeing in crisis can evoke many powerful feelings, such as feeling unsafe. This meditation helps you find and connect to your safe place.",
        "buttons": [
          {
            "component": "Button",
            "content": "Let’s meditate",
            "sectionId": "section2"
          }
        ]
      },
      {
        "id": "section2",
        "type": "audio",
        "title": "Meditation",
        "description": "You are invited to a short meditation.",
        "audioUri": "https://storage.googleapis.com/k-org-879a8.appspot.com/audio/meditations/my-safe-place.mp3",
        "buttons": [
          {
            "component": "Button",
            "content": "Continue",
            "sectionId": "section3"
          }
        ],
        "alias": "safe place: section 2",
        "duration": "03:10"
      },
      {
        "id": "section3",
        "type": "editorialWithImage",
        "alias": "Well done!",
        "topImageUri": "https://storage.googleapis.com/k-org-879a8.appspot.com/images/exercises/7feb7a68-b1be-407d-93f7-cc098787c432/photo-1510024161681-8a1f66ed1a25.jpg",
        "title": "Well done!",
        "content": "Well done for completing this meditation.\n\nYour safe place is always within you. You can revisit it wherever you are, whenever you need.",
        "buttons": [
          {
            "component": "Button",
            "variant": "default",
            "content": "Next",
            "sectionId": "7f667f8a-1f10-4624-8156-1a249e83bf4e"
          }
        ]
      },
      {
        "type": "sharingExercise",
        "previewSharings": true,
        "enableEarlySkip": true,
        "id": "7f667f8a-1f10-4624-8156-1a249e83bf4e",
        "alias": "Sharing wall: my safe place",
        "question": "Is there a difficult situation ahead that might be easier if you remember your safe place? ",
        "exampleText": "I can feel strong emotions when talking with my mom. I'll  remeber my safe place next time we talk."
      }
    ],
    "alias": "Meditation: My Safe Place"
  },
  "sv": {
    "id": "7feb7a68-b1be-407d-93f7-cc098787c432",

    "root": "section1",
    "sections": [
      {
        "id": "section1",
        "type": "editorialWithImage",
        "alias": "Min säkra plats",
        "title": "Min säkra plats",
        "content": "*3 minuter*\n\nAtt vara i kris kan väcka många kraftfulla känslor, som att känna sig osäkra. Denna meditation hjälper dig att hitta och ansluta till din säkra plats.",
        "buttons": [
          {
            "component": "Button",
            "content": "Låt oss meditera",
            "sectionId": "section2"
          }
        ]
      },
      {
        "id": "section2",
        "type": "audio",
        "title": "Meditation",
        "description": "Du är inbjuden till en kort meditation.",
        "audioUri": "https://storage.googleapis.com/k-org-879a8.appspot.com/audio/meditations/my-safe-place.mp3",
        "buttons": [
          {
            "component": "Button",
            "content": "Fortsätta",
            "sectionId": "section3"
          }
        ]
      },
      {
        "id": "section3",
        "type": "editorialWithImage",
        "alias": "Bra gjort!",
        "topImageUri": "https://storage.googleapis.com/k-org-879a8.appspot.com/images/exercises/7feb7a68-b1be-407d-93f7-cc098787c432/photo-1510024161681-8a1f66ed1a25.jpg",
        "title": "Bra gjort!",
        "content": "Bra gjort för att slutföra denna meditation.\n\nDin säkra plats är alltid inom dig. Du kan besöka den vart du än är, när du behöver.",
        "buttons": [
          {
            "component": "ExerciseCompleteButton",
            "content": "Avsluta"
          }
        ]
      }
    ],
    "alias": "Meditation: My Safe Place"
  },
  "pt": {
    "id": "7feb7a68-b1be-407d-93f7-cc098787c432",

    "root": "section1",
    "sections": [
      {
        "id": "section1",
        "type": "editorialWithImage",
        "alias": "O meu lugar seguro",
        "title": "O meu lugar seguro",
        "content": "*02:56 minutos*\n\nEstar em crise pode despoletar muitos sentimentos poderosos, como insegurança. Esta meditação ajuda-te a encontrar e a conectares-te com o teu lugar seguro.",
        "buttons": [
          {
            "component": "Button",
            "content": "Vamos meditar",
            "sectionId": "section2"
          }
        ],
        "topImageUri": "https://res.cloudinary.com/twentyninek/image/upload/q_auto,t_global/v1620308175/Illustrations_Meditations/Heading_my_safe_place_qfwsic.png"
      },
      {
        "id": "section2",
        "type": "audio",
        "title": "Meditação",
        "description": "Convidamos-te para uma meditação breve.",
        "audioUri": "https://res.cloudinary.com/twentyninek/video/upload/q_auto,t_global/v1621523405/29k%20FJN/Meditations/Joanna%20Final/My_Safe_Place_yidol7.mp3",
        "buttons": [
          {
            "component": "Button",
            "content": "Continuar",
            "sectionId": "section3"
          }
        ]
      },
      {
        "id": "section3",
        "type": "editorialWithImage",
        "alias": "Parabéns!",
        "topImageUri": "https://storage.googleapis.com/k-org-879a8.appspot.com/images/exercises/7feb7a68-b1be-407d-93f7-cc098787c432/photo-1510024161681-8a1f66ed1a25.jpg",
        "title": "Parabéns!",
        "content": "Parabéns por completares esta meditação.\n\nO teu lugar seguro está sempre dentro de ti. Podes revisitá-lo onde quer que estejas, sempre que precisares.",
        "buttons": [
          {
            "component": "Button",
            "variant": "default",
            "content": "Continuar",
            "sectionId": "f77b3a72-fbb5-466c-b645-f22d6d3562ce"
          }
        ]
      },
      {
        "type": "sharingExercise",
        "previewSharings": true,
        "enableEarlySkip": true,
        "id": "f77b3a72-fbb5-466c-b645-f22d6d3562ce",
        "alias": "Sharing wall: my safe place",
        "question": "Tens uma situação difícil pela frente que pode ser mais fácil de enfrentar se te lembrares do teu lugar seguro?",
        "exampleText": "Posso sentir emoções fortes ao falar com a minha mãe. Vou-me lembrar do meu lugar seguro na próxima vez que conversarmos."
      }
    ],
    "alias": "Meditation: My Safe Place"
  }
}
