{
  "en": {
    "id": "a43149fe-e80c-4b8f-a735-9f89be3b79d9",
    "alias": "Leadership-styles-3",
    "sections": [
      {
        "type": "editorialWithImage",
        "id": "4e55d5cd-a064-4f87-b9f0-266ad5344c19",
        "alias": "Intellectual stimulation",
        "title": "Intellectual stimulation",
        "content": "The second transformational skill, **intellectual stimulation,** involves leaders helping others to develop their ability to approach and think through tasks **themselves**.\n\nPart of this skill is recognizing that the people you're leading and coaching are not receivers of information or advice. As a result,  intellectual stimulation often involves asking people questions to help them **see a way forward**, rather than \"telling\" them how to do something. \n\nHelping them learn by exploring helps them to learn from their experience rather than relying on rules, and perhaps find their own way to achieve the same goal.\n\nMany parents are masters of helping their children learn how things work through tasks like these, but few leaders use this same skill to develop the people around them.",
        "buttons": [
          {
            "component": "Button",
            "content": "Show me an example",
            "sectionId": "58c6fa8e-a73e-4d6b-9c4e-a8ecb095f83a"
          }
        ]
      },
      {
        "type": "editorialWithImage",
        "id": "58c6fa8e-a73e-4d6b-9c4e-a8ecb095f83a",
        "alias": "Intellectual stimulation 2",
        "title": "How can I use intellectual stimulation in the real world?",
        "content": "* Help others to learn how to recognize patterns in what they're doing, e.g. in their work tasks, in useful strategies, in how they approach things, and in how they see situations\n* Show them that even when ideas initially seem a bit out-there or silly, there might be something useful in them\n* Encourage others to revisit problems and try to look at them in different ways\n* Ask questions to help people see the assumptions they're working from and be open to changing them if they don't help them pursue what makes sense and matters to them\n* Show that uncertainty is not something to avoid at all costs, but can help us pursue purpose by providing opportunities to directly experience how it leads to success or new opportunities we didn't even know existed",
        "buttons": [
          {
            "component": "NextConversationButton",
            "variant": "primary",
            "conversationId": "03aa2eeb-7af5-4087-945c-044cef3e1545",
            "content": "Continue"
          }
        ]
      }
    ],
    "root": "4e55d5cd-a064-4f87-b9f0-266ad5344c19"
  },
  "sv": {
    "id": "a43149fe-e80c-4b8f-a735-9f89be3b79d9",
    "alias": "Leadership-styles-3"
  },
  "pt": {
    "id": "a43149fe-e80c-4b8f-a735-9f89be3b79d9",
    "alias": "Leadership-styles-3"
  }
}
