{
  "en": {
    "segments": [
      "ADULTS"
    ],
    "name": "Acceptance",
    "thumbnail": "https://res.cloudinary.com/twentyninek/image/upload/f_auto,q_auto,t_global/v1620653668/Illustrations_Exercises/Thumbnail_Acceptance_fc0qvs.png",
    "time": "15 minutes",
    "featured": true,
    "duration": {
      "count": 15,
      "type": "minute"
    },
    "tags": [
      "Anxiety"
    ],
    "type": "exercise",
    "id": "18e8c0ba-7027-11ea-bc55-0242ac130003",
    "description": "Practice on accepting feelings and allowing them to be present.",
    "conversations": [
      {
        "conversationId": "18e8c0ba-7027-11ea-bc55-0242ac130003",
        "title": "Acceptance"
      }
    ]
  },
  "sv": {
    "segments": [
      "ADULTS"
    ],
    "name": "Godkännande",
    "thumbnail": "https://res.cloudinary.com/twentyninek/image/upload/f_auto,q_auto,t_global/v1620653668/Illustrations_Exercises/Thumbnail_Acceptance_fc0qvs.png",
    "time": "15 minuter",
    "featured": true,
    "duration": {
      "count": 15,
      "type": "minute"
    },
    "tags": [
      "Ångest"
    ],
    "type": "exercise",
    "id": "18e8c0ba-7027-11ea-bc55-0242ac130003",
    "description": "Öva på att acceptera känslor och låta dem vara närvarande.",
    "wip": true,
    "conversations": [
      {
        "conversationId": "18e8c0ba-7027-11ea-bc55-0242ac130003",
        "title": "Godkännande"
      }
    ]
  },
  "pt": {
    "segments": [
      "ADULTS"
    ],
    "name": "Aceitação",
    "thumbnail": "https://res.cloudinary.com/twentyninek/image/upload/f_auto,q_auto,t_global/v1620653668/Illustrations_Exercises/Thumbnail_Acceptance_fc0qvs.png",
    "time": "15 minutes",
    "featured": true,
    "duration": {
      "count": 15,
      "type": "minute"
    },
    "tags": [
      "Ansiedade"
    ],
    "type": "exercise",
    "id": "18e8c0ba-7027-11ea-bc55-0242ac130003",
    "description": "Pratica a aceitação de emoções e permite que estas estejam presentes.",
    "wip": false,
    "conversations": [
      {
        "conversationId": "18e8c0ba-7027-11ea-bc55-0242ac130003",
        "title": "Aceitação"
      }
    ]
  }
}