{
  "en": {
    "segments": [
      "ADULTS"
    ],
    "name": "Breathing anchor",
    "thumbnail": "https://res.cloudinary.com/twentyninek/image/upload/f_auto,q_auto,t_global/v1620635336/Illustrations_Meditations/Thumbnail_Breathing_anchor_1_j1kyar.png",
    "conversations": [
      {
        "conversationId": "96d3d3eb-2ace-4bb6-a858-90a3da917b14",
        "title": "Breathing anchor"
      }
    ],
    "duration": {
      "count": 9,
      "type": "minute"
    },
    "tags": [
      "Stress"
    ],
    "type": "meditation",
    "id": "96d3d3eb-2ace-4bb6-a858-90a3da917b14",
    "description": "Return to a present moment of peace and calm.",
    "wip": false
  },
  "sv": {
    "segments": [
      "ADULTS"
    ],
    "name": "Andningsankaret",
    "thumbnail": "https://res.cloudinary.com/twentyninek/image/upload/f_auto,q_auto,t_global/v1620635336/Illustrations_Meditations/Thumbnail_Breathing_anchor_1_j1kyar.png",
    "conversations": [
      {
        "conversationId": "96d3d3eb-2ace-4bb6-a858-90a3da917b14",
        "title": "Andningsankaret"
      }
    ],
    "duration": {
      "count": 9,
      "type": "minute"
    },
    "tags": [
      "Stress"
    ],
    "type": "meditation",
    "id": "96d3d3eb-2ace-4bb6-a858-90a3da917b14",
    "description": "Använd din andning för att landa här och nu.",
    "wip": true
  },
  "pt": {
    "segments": [
      "ADULTS"
    ],
    "name": "A respiração como âncora",
    "thumbnail": "https://res.cloudinary.com/twentyninek/image/upload/q_auto,t_global/v1620635336/Illustrations_Meditations/Thumbnail_Breathing_anchor_1_j1kyar.png",
    "featured": true,
    "conversations": [
      {
        "conversationId": "96d3d3eb-2ace-4bb6-a858-90a3da917b14",
        "title": "A respiração como âncora"
      }
    ],
    "duration": {
      "count": 9,
      "type": "minute"
    },
    "tags": [
      "Desenvolvimento pessoal"
    ],
    "type": "meditation",
    "id": "96d3d3eb-2ace-4bb6-a858-90a3da917b14",
    "description": "Volta ao momento presente de calma e paz.",
    "wip": false
  }
}