{
  "en": {
    "segments": ["ALL"],
    "name": "Be kind to yourself",
    "thumbnail": "https://storage.googleapis.com/k-org-879a8.appspot.com/images/exercises/9528d6db-f979-47ea-88f8-e1e413ecee4c/self-compassion-excercise_thumb_lg.png",
    "conversations": [
      {
        "title": "Be kind to yourself",
        "conversationId": "Exercise-bekindtoyourself"
      }
    ],
    "duration": {
      "count": 10,
      "type": "minute"
    },
    "type": "exercise",
    "id": "9528d6db-f979-47ea-88f8-e1e413ecee4c",
    "wip": false
  },
  "sv": {
    "segments": ["ALL"],
    "name": "Var snäll mot dig själv",
    "thumbnail": "https://storage.googleapis.com/k-org-879a8.appspot.com/images/exercises/9528d6db-f979-47ea-88f8-e1e413ecee4c/self-compassion-excercise_thumb_lg.png",
    "featured": true,
    "conversations": [
      {
        "title": "Var snäll mot dig själv",
        "conversationId": "Exercise-bekindtoyourself"
      }
    ],
    "duration": {
      "count": 10,
      "type": "minute"
    },
    "type": "exercise",
    "id": "9528d6db-f979-47ea-88f8-e1e413ecee4c",
    "wip": false
  },
  "pt": {
    "segments": ["ALL"],
    "name": "Sê gentil contigo",
    "thumbnail": "https://storage.googleapis.com/k-org-879a8.appspot.com/images/exercises/9528d6db-f979-47ea-88f8-e1e413ecee4c/self-compassion-excercise_thumb_lg.png",
    "conversations": [
      {
        "title": "Sê gentil contigo",
        "conversationId": "Exercise-bekindtoyourself"
      }
    ],
    "duration": {
      "count": 10,
      "type": "minute"
    },
    "type": "exercise",
    "id": "9528d6db-f979-47ea-88f8-e1e413ecee4c",
    "wip": false
  }
}
