{
  "en": {
    "segments": [
      "ADULTS"
    ],
    "name": "Acting in a way I can be proud of",
    "thumbnail": "https://res.cloudinary.com/twentyninek/image/upload/f_auto,q_auto,t_global/v1620653669/Illustrations_Exercises/Thumbnail_Acting_in_a_way_I_can_be_proud_of_xvgv4v.png",
    "duration": {
      "count": 20,
      "type": "minute"
    },
    "type": "exercise",
    "id": "cb540b60-53e2-4bc7-b584-53b7b71b9f02",
    "description": "Living for meaning, not fear.",
    "wip": true,
    "conversations": [
      {
        "conversationId": "cb540b60-53e2-4bc7-b584-53b7b71b9f02",
        "title": "Acting in a way I can be proud of"
      }
    ]
  },
  "sv": {
    "segments": [
      "ADULTS"
    ],
    "name": "Handlar på ett sätt som jag kan vara stolt över i den här situationen",
    "thumbnail": "https://res.cloudinary.com/twentyninek/image/upload/f_auto,q_auto,t_global/v1620653669/Illustrations_Exercises/Thumbnail_Acting_in_a_way_I_can_be_proud_of_xvgv4v.png",
    "duration": {
      "count": 20,
      "type": "minute"
    },
    "type": "exercise",
    "id": "cb540b60-53e2-4bc7-b584-53b7b71b9f02",
    "description": "Att leva för mening, inte rädsla.",
    "wip": true,
    "conversations": [
      {
        "conversationId": "cb540b60-53e2-4bc7-b584-53b7b71b9f02",
        "title": "Handlar på ett sätt som jag kan vara stolt över i den här situationen"
      }
    ]
  },
  "pt": {
    "segments": [
      "ADULTS"
    ],
    "name": "Agir de uma forma que me possa orgulhar",
    "thumbnail": "https://res.cloudinary.com/twentyninek/image/upload/f_auto,q_auto,t_global/v1620653669/Illustrations_Exercises/Thumbnail_Acting_in_a_way_I_can_be_proud_of_xvgv4v.png",
    "duration": {
      "count": 20,
      "type": "minute"
    },
    "type": "exercise",
    "id": "cb540b60-53e2-4bc7-b584-53b7b71b9f02",
    "description": "Viver com significado e não com medo",
    "wip": false,
    "conversations": [
      {
        "conversationId": "cb540b60-53e2-4bc7-b584-53b7b71b9f02",
        "title": "Agir de uma forma que me possa orgulhar"
      }
    ]
  }
}